Lb_a =  1.1964 +/- 0.090588  L(0 - 3) 
Lb_a2 =  1.1773 +/- 0.18205  L(0 - 3) 
Lb_beta = -0.00929357 +/- 0.0015946  L(-5 - 5) 
Lb_lambda = -2.78389 +/- 0.26346  L(-10 - 0) 
Lb_mean =  5623.5 +/- 0.51798 L(5600 - 5640) 
Lb_n =  1.1523 +/- 0.094371  L(0 - 3) 
Lb_n2 =  2.0490 +/- 0.31767  L(0 - 3) 
Lb_n_signal =  34090 +/- 184.63 L(0 - 200000) 
Lb_sigma =  38.671 +/- 2.0647 L(0 - 100) 
Lb_zeta =  0.0000 C L(-INF - +INF) 
