LcK_a =  1.3964 +/- 0.090588  L(0 - 5) 
LcK_a2 =  1.473 +/- 0.18205  L(0 - 5) 
LcK_beta = -0.000129357 +/- 0.0015946  L(-5 - 5) 
LcK_lambda = -0.78389 +/- 0.26346  L(-10 - 0) 
LcK_mean =  5595.0 +/- 0.51798 L(5570 - 5630) 
LcK_n =  0.1523 +/- 0.094371  L(0 - 10) 
LcK_n2 =  2.490 +/- 0.31767  L(0 - 10) 
LcK_n_signal =  7100 +/- 184.63 L(6000 - 10000) 
LcK_sigma =  58.671 +/- 2.0647 L(30 - 80) 
LcK_zeta =  0.0000 C L(-INF - +INF) 
