Lc_delta =  0.98640 +/- 0.034341  L(0 - 10) 
Lc_frac_john =  0.48716 +/- 0.025918  L(0 - 1) 
Lc_gamma =  0.24204 +/- 0.015067  L(-30 - 30) 
Lc_lambda =  6.5995 +/- 0.34834  L(0 - 500) 
Lc_mean =  2287.8 +/- 0.063296 L(2206 - 2366) 
Lc_sigma =  6.9630 +/- 0.10702 L(0 - 500) 
n_signal =  54697 +/- 233.88 L(0 - 200000) 
